<svg id="Component_49_1" data-name="Component 49 – 1" xmlns="http://www.w3.org/2000/svg" width="16.93" height="26" viewBox="0 0 16.93 26">
  <path id="Path_303" data-name="Path 303" d="M16.93,0,10.484.706A1.764,1.764,0,0,0,8.913,2.459V15.077a9.377,9.377,0,0,0-1.653-.15C3.25,14.927,0,17.405,0,20.463S3.25,26,7.259,26s7.259-2.478,7.259-5.537V9.738a.958.958,0,0,1,.853-.952L16.4,8.674a.6.6,0,0,0,.53-.591Z" opacity="0.196"/>
</svg>
