<svg id="Component_51_1" data-name="Component 51 – 1" xmlns="http://www.w3.org/2000/svg" width="65.599" height="65.599" viewBox="0 0 65.599 65.599">
  <path id="Path_269" data-name="Path 269" d="M18.434,30.05c4.729-2.527,7.08,2.533,7.08,7.082.932-2.709,5.66-.913,7.034,1.972.918-3.027,3.59-1.577,7.57.766-2.343-3.98-3.793-6.652-.766-7.57-2.884-1.374-4.681-6.1-1.972-7.034-4.549,0-9.609-2.351-7.082-7.08-4.424,1.835-8.807,1.939-11.575.289,1.65,2.769,1.546,7.151-.289,11.575M16.78,23.861c-5.132,1.556-3.217,6.8,0,10.014-2.574-1.257-4.647,3.357-3.578,6.368-2.79-1.492-3.653,1.423-4.812,5.894-1.158-4.471-2.021-7.386-4.811-5.894,1.069-3.011-1-7.625-3.578-6.368,3.216-3.217,5.131-8.458,0-10.014,4.426-1.832,7.6-4.856,8.389-7.982.791,3.125,3.963,6.149,8.391,7.982M46.634,8.389c-4.471,1.158-7.386,2.023-5.9,4.812-3.01-1.071-7.625,1-6.367,3.578-3.217-3.217-8.458-5.133-10.014,0-1.832-4.427-4.856-7.6-7.982-8.391C19.5,7.6,22.526,4.426,24.358,0c1.556,5.131,6.8,3.216,10.014,0-1.258,2.574,3.357,4.647,6.367,3.578-1.491,2.79,1.425,3.653,5.9,4.811M9.943,7.3a2.8,2.8,0,1,1,3.956,0,2.8,2.8,0,0,1-3.956,0M3.589,13.651a2.8,2.8,0,1,1,3.956,0,2.8,2.8,0,0,1-3.956,0m13.268,2.958a2.8,2.8,0,1,1,0-3.956,2.8,2.8,0,0,1,0,3.956" transform="translate(65.599 32.624) rotate(135)" fill="#fff"/>
</svg>
