<svg id="Component_50_1" data-name="Component 50 – 1" xmlns="http://www.w3.org/2000/svg" width="562.396" height="98.001" viewBox="0 0 562.396 98.001">
  <path id="Path_274" data-name="Path 274" d="M26.892,11.4c3.353,1.793,5.02-1.8,5.02-5.02.66,1.92,4.013.647,4.987-1.4.651,2.147,2.545,1.119,5.367-.542C40.6,7.266,39.577,9.16,41.723,9.811c-2.045.973-3.319,4.326-1.4,4.986-3.225,0-6.813,1.668-5.021,5.021-3.137-1.3-6.244-1.375-8.207-.2,1.17-1.964,1.1-5.07-.2-8.208m-1.173,4.389c-3.639-1.1-2.281-4.819,0-7.1-1.825.891-3.3-2.38-2.537-4.515C21.2,5.236,20.591,3.17,19.77,0c-.821,3.17-1.433,5.236-3.411,4.179.758,2.135-.712,5.406-2.537,4.515,2.28,2.281,3.638,6,0,7.1,3.138,1.3,5.388,3.443,5.948,5.659.561-2.216,2.81-4.36,5.949-5.659m16.987,7.558c-2.134.758-5.406-.712-4.514-2.537-2.281,2.28-6,3.638-7.1,0-1.3,3.138-3.443,5.388-5.659,5.949,2.216.56,4.36,2.81,5.659,5.948,1.1-3.638,4.819-2.281,7.1,0-.892-1.825,2.38-3.3,4.514-2.537-1.057-1.978,1.01-2.59,4.179-3.411-3.169-.822-5.236-1.434-4.179-3.412M20.872,27.538a1.983,1.983,0,1,0,2.805,0,1.983,1.983,0,0,0-2.805,0m-4.5-4.5a1.983,1.983,0,1,0,2.805,0,1.983,1.983,0,0,0-2.805,0m9.407-2.1a1.983,1.983,0,1,0,0,2.8,1.983,1.983,0,0,0,0-2.8M95.6,29.552c-2.9-1.522-4.772-2.59-3.292-4.275-2.251.252-5.1-1.925-3.818-3.5-2.74,1.7-6.668,2.176-6.913-1.618-1.98,2.76-4.58,4.461-6.865,4.5,2.029,1.051,3.6,3.73,4.154,7.082,1.9-3.292,5.212-1.122,6.913,1.618-.452-1.98,3.068-2.666,4.974-1.441-.579-2.167,1.573-2.292,4.847-2.369M75.225,18.477C74.244,14.8,78.117,14,81.258,14.733c-1.72-1.08.284-4.055,2.5-4.536-1.941-1.123-.509-2.733,1.752-5.1-3.126.973-5.205,1.543-5.35-.695-1.414,1.77-4.969,2.245-5.174.225-.735,3.14-3.176,6.253-6.032,3.744.551,3.351-.085,6.393-1.672,8.038,2.179-.692,5.186.088,7.945,2.07M48.179,15.833c2.341,1.254,3.925,3.1,4.189,4.863.608-1.681,2.524-3.174,5.066-3.942-2.745-1.14-1.4-3.925.549-5.523-1.488.552-2.379-2.106-1.624-3.708-1.62.669-1.937-.986-2.33-3.515-.884,2.4-1.521,3.962-2.977,2.987.424,1.719-.973,4.15-2.323,3.316,1.6,1.95,2.366,4.946-.55,5.522M2.451,8.222A1.94,1.94,0,1,1,5.874,7.054a1,1,0,0,0,.958,1.04,1.025,1.025,0,0,0,1.04-.957A3.939,3.939,0,1,0,.92,9.509l8.4,9.977A1,1,0,1,0,10.854,18.2Zm70.6,12.549a4.569,4.569,0,0,0-3.286,1.463,6.812,6.812,0,0,0-13.149,2.505,1,1,0,0,0,2,0,4.816,4.816,0,1,1,4.816,4.816H50.418a1,1,0,0,0,0,2H63.431a6.818,6.818,0,0,0,6.8-6.565c.241-.487,1.21-2.219,2.816-2.219a1,1,0,0,0,0-2M51.934,25.584a1.785,1.785,0,1,0-2.524,0,1.786,1.786,0,0,0,2.524,0" transform="translate(326.698)" fill="#fff"/>
  <path id="Path_275" data-name="Path 275" d="M68.7,11.4c-3.353,1.793-5.02-1.795-5.02-5.02-.66,1.92-4.013.647-4.987-1.4-.651,2.147-2.545,1.119-5.367-.542,1.661,2.822,2.689,4.716.543,5.367,2.045.973,3.319,4.326,1.4,4.986,3.225,0,6.813,1.668,5.021,5.021,3.137-1.3,6.244-1.375,8.207-.2-1.17-1.964-1.1-5.07.205-8.208m1.173,4.389c3.639-1.1,2.281-4.819,0-7.1,1.825.891,3.295-2.38,2.537-4.515C74.39,5.236,75,3.17,75.824,0c.821,3.17,1.433,5.236,3.411,4.179-.758,2.135.712,5.406,2.537,4.515-2.28,2.281-3.638,6,0,7.1-3.138,1.3-5.388,3.443-5.948,5.659-.561-2.216-2.81-4.36-5.949-5.659M52.888,23.352c2.134.758,5.406-.712,4.514-2.537,2.281,2.28,6,3.638,7.1,0,1.3,3.138,3.443,5.388,5.659,5.949-2.216.56-4.36,2.81-5.659,5.948-1.1-3.638-4.819-2.281-7.1,0,.892-1.825-2.38-3.295-4.514-2.537,1.057-1.978-1.01-2.59-4.179-3.411,3.169-.822,5.236-1.434,4.179-3.412m21.834,4.186a1.983,1.983,0,1,1-2.805,0,1.983,1.983,0,0,1,2.805,0m4.5-4.5a1.983,1.983,0,1,1-2.805,0,1.983,1.983,0,0,1,2.805,0m-9.407-2.1a1.983,1.983,0,1,1,0,2.8,1.983,1.983,0,0,1,0-2.8M0,29.552c2.9-1.522,4.772-2.59,3.292-4.275,2.251.252,5.1-1.925,3.818-3.5,2.74,1.7,6.668,2.176,6.913-1.618,1.98,2.76,4.58,4.461,6.865,4.5-2.029,1.051-3.6,3.73-4.154,7.082-1.9-3.292-5.212-1.122-6.913,1.618.452-1.98-3.068-2.666-4.974-1.441C5.425,29.754,3.273,29.629,0,29.552m20.37-11.075C21.35,14.8,17.477,14,14.336,14.733c1.72-1.08-.284-4.055-2.5-4.536,1.941-1.123.509-2.733-1.752-5.1,3.126.973,5.205,1.543,5.35-.695,1.414,1.77,4.969,2.245,5.174.225.735,3.14,3.176,6.253,6.032,3.744-.551,3.351.085,6.393,1.672,8.038-2.179-.692-5.186.088-7.945,2.07m27.046-2.644c-2.341,1.254-3.925,3.1-4.189,4.863-.608-1.681-2.524-3.174-5.066-3.942,2.745-1.14,1.4-3.925-.549-5.523,1.488.552,2.379-2.106,1.624-3.708,1.62.669,1.937-.986,2.33-3.515.884,2.4,1.521,3.962,2.977,2.987-.424,1.719.973,4.15,2.323,3.316-1.6,1.95-2.366,4.946.55,5.522M93.143,8.222A1.94,1.94,0,1,0,89.72,7.054a1,1,0,0,1-.958,1.04,1.025,1.025,0,0,1-1.04-.957,3.939,3.939,0,1,1,6.952,2.372l-8.405,9.977A1,1,0,0,1,84.74,18.2Zm-70.6,12.549a4.569,4.569,0,0,1,3.286,1.463,6.812,6.812,0,0,1,13.149,2.5,1,1,0,0,1-2,0,4.816,4.816,0,1,0-4.816,4.816H45.176a1,1,0,1,1,0,2H32.163a6.818,6.818,0,0,1-6.8-6.565c-.241-.487-1.21-2.219-2.816-2.219a1,1,0,1,1,0-2M43.66,25.584a1.785,1.785,0,1,1,2.524,0,1.786,1.786,0,0,1-2.524,0" transform="translate(141.401)" fill="#fff"/>
  <path id="Path_298" data-name="Path 298" d="M562.4,39.42H337.663a7.383,7.383,0,0,1-6.891-4.775,53.059,53.059,0,0,0-99.147,0,7.384,7.384,0,0,1-6.892,4.775H0" transform="translate(0 1.079)" fill="none" stroke="#fff" stroke-miterlimit="10" stroke-width="3"/>
  <path id="Path_299" data-name="Path 299" d="M42.5,0A42.5,42.5,0,1,0,85,42.5,42.5,42.5,0,0,0,42.5,0M61.273,21.873a4.78,4.78,0,0,1,2.913,7.5,1.566,1.566,0,0,1-1.484.62l-5.789-.808a1.264,1.264,0,0,1-.99-.738,4.724,4.724,0,0,1-.389-1.884,4.788,4.788,0,0,1,5.739-4.691m-35.658,0a4.777,4.777,0,0,1,3.459,6.588,1.265,1.265,0,0,1-.987.73l-5.789.808a1.56,1.56,0,0,1-1.483-.621,4.782,4.782,0,0,1,4.8-7.5M42.5,68.763A24.047,24.047,0,0,1,18.59,46.995a2.048,2.048,0,0,1,2.032-2.245H64.216a2.188,2.188,0,0,1,2.176,2.4A24.046,24.046,0,0,1,42.5,68.763" transform="translate(238.698 13)" fill="#fff"/>
</svg>
